{
  "type": "service_account",
  "project_id": "bucket001-22fc7",
  "private_key_id": "9196cd0bbb82d412021cc4a21ec84636f425f833",
  "private_key": "-----BEGIN PRIVATE KEY-----\nMIIEvAIBADANBgkqhkiG9w0BAQEFAASCBKYwggSiAgEAAoIBAQCu3U5U/heNg6Bh\nEeXV3W9nMmlb2Jk/TKTtInTMWK4qLhhz1e/Us7jAcUIT7dXI45o8mXqxuxs8lCvo\n58ZQcF0RLf6ZVjXHX1/OY2ib4fdivKYqTCtmeZMtAiNJ5WYFztQLaHSOEF2+brAR\njiEXZ5jnQobm2ATU/mQRDEnTs+oValr0IYoaZBvORgWAgbEd1U4YBdvTZDoRlRRP\nDS/Fi8/LW6t5oBIgoQ9a89bNXsnbSVtw457NgXXxTXt1KpVjZh/W0KS4HnnwrsIF\nt/djk64WEx3dDnto/SOcv/5TmWE5NFv+zgvWImNy4Z9YGPh/lVJnTB2hc3/PX4Lu\nhZZNp41nAgMBAAECggEAP0Q7xJ2AKQfQHX7LwMKSvWwsWXo3DANvgoqeZpbJQOKX\nn0Vute7mb94qcapx2HKcycMf9LEFLDhR4L0G7/CPg5k4DgN2hrF3qOUnooqxpmwp\n1JDlfPiMqtKksOZKMNzBtHTxArtiJ3XFxzw8tcqaNEXKKDhNG0EFNHPVPD7SeTd9\nOhFwF9ZT/C6ioqEjeoCZ/GMMQ9uYV5143lgZMz7D1qY+wFbJP10a6u2QC+p2HYBc\nLVBUeZIYjOs0qAO1Yzbv2aA2n/yEwvDLX6oMNFxRayc2NkG5Epateey22iwqEMbF\nI0cKX0MNH2Q9eH/P77s1LCKJlbUA0xhWahywLXOBYQKBgQDr4CT5YSTNFQWpmsXO\nm7DWnPmYe8KIHCw6A07NgGXoQwxkxrl2EV/6AVT5Pa9viXh5t/Sna+h1+FS8h8Mo\nJ5c/+MZnp6eZzK7qt38OH6K3FUQT7ozOj6HYD04PwsPDGqDoM4apxWeYpWE/Kl5K\nhWJj2OOuSwEZeriUbaHuQL13RwKBgQC9yJfcFdPj4cIlIowgI2yhXDZ/Q3ypQoOx\nX7kOKt6wrTdoAqdeVEsw9MxS/pYEw3cMRlQ+pO8xKTfdzufO7ng6FPBy0VM+nYow\nUTxBDWRX7xnlvgf8H78sINuSeShb6/FCGPUV5KSnw3OSlayjtwATg6RBczwSWBKj\nDZOirByI4QKBgHZRRvq42ebthpufAV40Bq6Aq0rruZbg2uZ2xk6a+4NYLp1Wea1Z\n5dTYWjFz2c6PHJmhxt08aazTVl4Dk8dOpLX4Kj3QgWfKnmsqhFcnU02XI0EERilP\nLxXcB4IsZlo1v0T6o7ABT4foXTF8JTQoWERRhVPmV7TaNEBwBewnGWL9AoGASDRX\nQo6zbRHpcYNxWJDhtYqF2Wlttl/uBr/qgi9hRkrAt7u6vbLIYLniOvlNTkantm3T\ng3nw3v1VmfgsTZiA+WgaCzUEvN/nQXbGu+FCegooCjaAhzX03+8oWtPpvP9JbOJd\n7JRu6Lz97Zkwc6EeUE5XYedbxYbooEx8DPn6aUECgYAnoztapgnU3wC0PAEWkeSH\nvoj6ixmudYdwVsMypm6n6GBQZs+n0k3GT/LBFxsMZUM+dgBK0OJTFbK+g3bWljNe\nkYtL0iGsj4dI9ePXICK6CzMzL5DRSMnyMDXssvrZF1qTp7ACUCniwtTWeGPFaqjg\nBbIJINUSPvKhyES7FuVR5A==\n-----END PRIVATE KEY-----\n",
  "client_email": "firebase-adminsdk-p4t6h@bucket001-22fc7.iam.gserviceaccount.com",
  "client_id": "106800949076594881441",
  "auth_uri": "https://accounts.google.com/o/oauth2/auth",
  "token_uri": "https://oauth2.googleapis.com/token",
  "auth_provider_x509_cert_url": "https://www.googleapis.com/oauth2/v1/certs",
  "client_x509_cert_url": "https://www.googleapis.com/robot/v1/metadata/x509/firebase-adminsdk-p4t6h%40bucket001-22fc7.iam.gserviceaccount.com"
}
